%!PS-Adobe-2.0 EPSF-2.0
%%BoundingBox: 0 0 595 841
newpath
 15.0 13.0 translate                                                            
 0.55 1.0 scale                                                                 
 /Times-Roman findfont
 [20 0 0 15 0 0] makefont
 setfont
 0.1 setlinewidth
  1.4 0.85 scale
  100.0   420.0 moveto
  100.0   670.0 lineto
  690.0   670.0 lineto
  690.0   420.0 lineto
  100.0   420.0 lineto
  150.0   380.0 moveto
(      Log frequency  Hz       ) show
  190.1   400.0 moveto
(     -2) show
  215.1   420.0 moveto
  215.1   430.0 lineto
  305.2   400.0 moveto
(     -1) show
  330.2   420.0 moveto
  330.2   430.0 lineto
  420.4   400.0 moveto
(      0) show
  445.4   420.0 moveto
  445.4   430.0 lineto
  535.5   400.0 moveto
(      1) show
  560.5   420.0 moveto
  560.5   430.0 lineto
  650.6   400.0 moveto
(      2) show
  675.6   420.0 moveto
  675.6   430.0 lineto
   10.0   670.0 moveto
(L) show
   10.0   657.0 moveto
(o) show
   10.0   644.0 moveto
(g) show
   10.0   631.0 moveto
( ) show
   10.0   618.0 moveto
(a) show
   10.0   605.0 moveto
(m) show
   10.0   592.0 moveto
(p) show
   10.0   579.0 moveto
(l) show
   10.0   566.0 moveto
(i) show
   10.0   553.0 moveto
(t) show
   10.0   540.0 moveto
(u) show
   10.0   527.0 moveto
(d) show
   10.0   514.0 moveto
(e) show
   10.0   501.0 moveto
( ) show
   10.0   488.0 moveto
( ) show
   10.0   475.0 moveto
( ) show
   10.0   462.0 moveto
( ) show
   10.0   449.0 moveto
( ) show
   10.0   436.0 moveto
( ) show
   10.0   423.0 moveto
( ) show
   10.0   410.0 moveto
( ) show
   10.0   397.0 moveto
( ) show
   10.0   384.0 moveto
( ) show
   10.0   371.0 moveto
( ) show
   10.0   358.0 moveto
( ) show
   10.0   345.0 moveto
( ) show
   10.0   332.0 moveto
( ) show
   10.0   319.0 moveto
( ) show
   10.0   306.0 moveto
( ) show
   10.0   293.0 moveto
( ) show
    5.0   451.4 moveto
(     -3) show
  100.0   456.4 moveto
  110.0   456.4 lineto
    5.0   487.8 moveto
(     -2) show
  100.0   492.8 moveto
  110.0   492.8 lineto
    5.0   524.2 moveto
(     -1) show
  100.0   529.2 moveto
  110.0   529.2 lineto
    5.0   560.6 moveto
(      0) show
  100.0   565.6 moveto
  110.0   565.6 lineto
    5.0   597.1 moveto
(      1) show
  100.0   602.1 moveto
  110.0   602.1 lineto
    5.0   633.5 moveto
(      2) show
  100.0   638.5 moveto
  110.0   638.5 lineto
  100.0   693.0 moveto
(Amplitude Response, count/nm                                                    ) show
  146.0   458.1 moveto
  147.2   459.2 lineto
  148.4   460.3 lineto
  149.5   461.4 lineto
  150.7   462.4 lineto
  151.8   463.5 lineto
  153.0   464.6 lineto
  154.1   465.7 lineto
  155.3   466.8 lineto
  156.4   467.9 lineto
  157.6   468.9 lineto
  158.7   470.0 lineto
  159.9   471.1 lineto
  161.0   472.2 lineto
  162.2   473.2 lineto
  163.3   474.3 lineto
  164.5   475.4 lineto
  165.6   476.5 lineto
  166.8   477.5 lineto
  167.9   478.6 lineto
  169.1   479.6 lineto
  170.2   480.7 lineto
  171.4   481.8 lineto
  172.5   482.8 lineto
  173.7   483.9 lineto
  174.8   484.9 lineto
  176.0   485.9 lineto
  177.1   487.0 lineto
  178.3   488.0 lineto
  179.4   489.0 lineto
  180.6   490.0 lineto
  181.7   491.0 lineto
  182.9   492.0 lineto
  184.0   493.0 lineto
  185.2   494.0 lineto
  186.3   495.0 lineto
  187.5   496.0 lineto
  188.6   496.9 lineto
  189.8   497.9 lineto
  190.9   498.8 lineto
  192.1   499.7 lineto
  193.2   500.6 lineto
  194.4   501.5 lineto
  195.6   502.4 lineto
  196.7   503.3 lineto
  197.9   504.1 lineto
  199.0   505.0 lineto
  200.2   505.8 lineto
  201.3   506.6 lineto
  202.5   507.4 lineto
  203.6   508.1 lineto
  204.8   508.9 lineto
  205.9   509.6 lineto
  207.1   510.4 lineto
  208.2   511.1 lineto
  209.4   511.8 lineto
  210.5   512.4 lineto
  211.7   513.1 lineto
  212.8   513.7 lineto
  214.0   514.3 lineto
  215.1   514.9 lineto
  216.3   515.5 lineto
  217.4   516.1 lineto
  218.6   516.7 lineto
  219.7   517.2 lineto
  220.9   517.8 lineto
  222.0   518.3 lineto
  223.2   518.8 lineto
  224.3   519.3 lineto
  225.5   519.8 lineto
  226.6   520.3 lineto
  227.8   520.7 lineto
  228.9   521.2 lineto
  230.1   521.7 lineto
  231.2   522.1 lineto
  232.4   522.6 lineto
  233.5   523.0 lineto
  234.7   523.4 lineto
  235.8   523.9 lineto
  237.0   524.3 lineto
  238.1   524.7 lineto
  239.3   525.1 lineto
  240.4   525.5 lineto
  241.6   525.9 lineto
  242.8   526.3 lineto
  243.9   526.7 lineto
  245.1   527.1 lineto
  246.2   527.5 lineto
  247.4   527.9 lineto
  248.5   528.3 lineto
  249.7   528.6 lineto
  250.8   529.0 lineto
  252.0   529.4 lineto
  253.1   529.8 lineto
  254.3   530.2 lineto
  255.4   530.5 lineto
  256.6   530.9 lineto
  257.7   531.3 lineto
  258.9   531.7 lineto
  260.0   532.0 lineto
  261.2   532.4 lineto
  262.3   532.8 lineto
  263.5   533.1 lineto
  264.6   533.5 lineto
  265.8   533.9 lineto
  266.9   534.3 lineto
  268.1   534.6 lineto
  269.2   535.0 lineto
  270.4   535.4 lineto
  271.5   535.7 lineto
  272.7   536.1 lineto
  273.8   536.5 lineto
  275.0   536.8 lineto
  276.1   537.2 lineto
  277.3   537.6 lineto
  278.4   537.9 lineto
  279.6   538.3 lineto
  280.7   538.7 lineto
  281.9   539.0 lineto
  283.0   539.4 lineto
  284.2   539.7 lineto
  285.3   540.1 lineto
  286.5   540.5 lineto
  287.6   540.8 lineto
  288.8   541.2 lineto
  290.0   541.6 lineto
  291.1   541.9 lineto
  292.3   542.3 lineto
  293.4   542.7 lineto
  294.6   543.0 lineto
  295.7   543.4 lineto
  296.9   543.8 lineto
  298.0   544.1 lineto
  299.2   544.5 lineto
  300.3   544.9 lineto
  301.5   545.2 lineto
  302.6   545.6 lineto
  303.8   545.9 lineto
  304.9   546.3 lineto
  306.1   546.7 lineto
  307.2   547.0 lineto
  308.4   547.4 lineto
  309.5   547.8 lineto
  310.7   548.1 lineto
  311.8   548.5 lineto
  313.0   548.9 lineto
  314.1   549.2 lineto
  315.3   549.6 lineto
  316.4   549.9 lineto
  317.6   550.3 lineto
  318.7   550.7 lineto
  319.9   551.0 lineto
  321.0   551.4 lineto
  322.2   551.8 lineto
  323.3   552.1 lineto
  324.5   552.5 lineto
  325.6   552.9 lineto
  326.8   553.2 lineto
  327.9   553.6 lineto
  329.1   554.0 lineto
  330.2   554.3 lineto
  331.4   554.7 lineto
  332.5   555.0 lineto
  333.7   555.4 lineto
  334.8   555.8 lineto
  336.0   556.1 lineto
  337.2   556.5 lineto
  338.3   556.9 lineto
  339.5   557.2 lineto
  340.6   557.6 lineto
  341.8   558.0 lineto
  342.9   558.3 lineto
  344.1   558.7 lineto
  345.2   559.0 lineto
  346.4   559.4 lineto
  347.5   559.8 lineto
  348.7   560.1 lineto
  349.8   560.5 lineto
  351.0   560.9 lineto
  352.1   561.2 lineto
  353.3   561.6 lineto
  354.4   562.0 lineto
  355.6   562.3 lineto
  356.7   562.7 lineto
  357.9   563.1 lineto
  359.0   563.4 lineto
  360.2   563.8 lineto
  361.3   564.1 lineto
  362.5   564.5 lineto
  363.6   564.9 lineto
  364.8   565.2 lineto
  365.9   565.6 lineto
  367.1   566.0 lineto
  368.2   566.3 lineto
  369.4   566.7 lineto
  370.5   567.1 lineto
  371.7   567.4 lineto
  372.8   567.8 lineto
  374.0   568.2 lineto
  375.1   568.5 lineto
  376.3   568.9 lineto
  377.4   569.2 lineto
  378.6   569.6 lineto
  379.7   570.0 lineto
  380.9   570.3 lineto
  382.0   570.7 lineto
  383.2   571.1 lineto
  384.4   571.4 lineto
  385.5   571.8 lineto
  386.7   572.2 lineto
  387.8   572.5 lineto
  389.0   572.9 lineto
  390.1   573.2 lineto
  391.3   573.6 lineto
  392.4   574.0 lineto
  393.6   574.3 lineto
  394.7   574.7 lineto
  395.9   575.1 lineto
  397.0   575.4 lineto
  398.2   575.8 lineto
  399.3   576.2 lineto
  400.5   576.5 lineto
  401.6   576.9 lineto
  402.8   577.3 lineto
  403.9   577.6 lineto
  405.1   578.0 lineto
  406.2   578.3 lineto
  407.4   578.7 lineto
  408.5   579.1 lineto
  409.7   579.4 lineto
  410.8   579.8 lineto
  412.0   580.2 lineto
  413.1   580.5 lineto
  414.3   580.9 lineto
  415.4   581.3 lineto
  416.6   581.6 lineto
  417.7   582.0 lineto
  418.9   582.4 lineto
  420.0   582.7 lineto
  421.2   583.1 lineto
  422.3   583.4 lineto
  423.5   583.8 lineto
  424.6   584.2 lineto
  425.8   584.5 lineto
  426.9   584.9 lineto
  428.1   585.3 lineto
  429.2   585.6 lineto
  430.4   586.0 lineto
  431.6   586.4 lineto
  432.7   586.7 lineto
  433.9   587.1 lineto
  435.0   587.4 lineto
  436.2   587.8 lineto
  437.3   588.2 lineto
  438.5   588.5 lineto
  439.6   588.9 lineto
  440.8   589.3 lineto
  441.9   589.6 lineto
  443.1   590.0 lineto
  444.2   590.4 lineto
  445.4   590.7 lineto
  446.5   591.1 lineto
  447.7   591.5 lineto
  448.8   591.8 lineto
  450.0   592.2 lineto
  451.1   592.5 lineto
  452.3   592.9 lineto
  453.4   593.3 lineto
  454.6   593.6 lineto
  455.7   594.0 lineto
  456.9   594.4 lineto
  458.0   594.7 lineto
  459.2   595.1 lineto
  460.3   595.5 lineto
  461.5   595.8 lineto
  462.6   596.2 lineto
  463.8   596.6 lineto
  464.9   596.9 lineto
  466.1   597.3 lineto
  467.2   597.6 lineto
  468.4   598.0 lineto
  469.5   598.4 lineto
  470.7   598.7 lineto
  471.8   599.1 lineto
  473.0   599.5 lineto
  474.1   599.8 lineto
  475.3   600.2 lineto
  476.4   600.6 lineto
  477.6   600.9 lineto
  478.8   601.3 lineto
  479.9   601.7 lineto
  481.1   602.0 lineto
  482.2   602.4 lineto
  483.4   602.7 lineto
  484.5   603.1 lineto
  485.7   603.5 lineto
  486.8   603.8 lineto
  488.0   604.2 lineto
  489.1   604.6 lineto
  490.3   604.9 lineto
  491.4   605.3 lineto
  492.6   605.7 lineto
  493.7   606.0 lineto
  494.9   606.4 lineto
  496.0   606.7 lineto
  497.2   607.1 lineto
  498.3   607.5 lineto
  499.5   607.8 lineto
  500.6   608.2 lineto
  501.8   608.6 lineto
  502.9   608.9 lineto
  504.1   609.3 lineto
  505.2   609.7 lineto
  506.4   610.0 lineto
  507.5   610.4 lineto
  508.7   610.8 lineto
  509.8   611.1 lineto
  511.0   611.5 lineto
  512.1   611.8 lineto
  513.3   612.2 lineto
  514.4   612.6 lineto
  515.6   612.9 lineto
  516.7   613.3 lineto
  517.9   613.7 lineto
  519.0   614.0 lineto
  520.2   614.4 lineto
  521.3   614.8 lineto
  522.5   615.1 lineto
  523.6   615.5 lineto
  524.8   615.9 lineto
  526.0   616.2 lineto
  527.1   616.6 lineto
  528.3   616.9 lineto
  529.4   617.3 lineto
  530.6   617.7 lineto
  531.7   618.0 lineto
  532.9   618.4 lineto
  534.0   618.8 lineto
  535.2   619.1 lineto
  536.3   619.5 lineto
  537.5   619.9 lineto
  538.6   620.2 lineto
  539.8   620.6 lineto
  540.9   620.9 lineto
  542.1   621.3 lineto
  543.2   621.7 lineto
  544.4   622.0 lineto
  545.5   622.4 lineto
  546.7   622.8 lineto
  547.8   623.1 lineto
  549.0   623.5 lineto
  550.1   623.9 lineto
  551.3   624.2 lineto
  552.4   624.6 lineto
  553.6   625.0 lineto
  554.7   625.3 lineto
  555.9   625.7 lineto
  557.0   626.0 lineto
  558.2   626.4 lineto
  559.3   626.8 lineto
  560.5   627.1 lineto
  561.6   627.5 lineto
  562.8   627.9 lineto
  563.9   628.2 lineto
  565.1   628.6 lineto
  566.2   629.0 lineto
  567.4   629.3 lineto
  568.5   629.7 lineto
  569.7   630.1 lineto
  570.8   630.4 lineto
  572.0   630.8 lineto
  573.2   631.1 lineto
  574.3   631.5 lineto
  575.5   631.9 lineto
  576.6   632.2 lineto
  577.8   632.6 lineto
  578.9   633.0 lineto
  580.1   633.3 lineto
  581.2   633.7 lineto
  582.4   634.1 lineto
  583.5   634.4 lineto
  584.7   634.8 lineto
  585.8   635.1 lineto
  587.0   635.5 lineto
  588.1   635.9 lineto
  589.3   636.2 lineto
  590.4   636.6 lineto
  591.6   637.0 lineto
  592.7   637.3 lineto
  593.9   637.7 lineto
  595.0   638.1 lineto
  596.2   638.4 lineto
  597.3   638.8 lineto
  598.5   639.2 lineto
  599.6   639.5 lineto
  600.8   639.9 lineto
  601.9   640.2 lineto
  603.1   640.6 lineto
  604.2   641.0 lineto
  605.4   641.3 lineto
  606.5   641.7 lineto
  607.7   642.1 lineto
  608.8   642.4 lineto
  610.0   642.8 lineto
  611.1   643.2 lineto
  612.3   643.5 lineto
  613.4   643.9 lineto
  614.6   644.3 lineto
  615.7   644.6 lineto
  616.9   645.0 lineto
  618.0   645.3 lineto
  619.2   645.7 lineto
  620.4   646.1 lineto
  621.5   646.4 lineto
  622.7   646.8 lineto
  623.8   647.2 lineto
  625.0   647.5 lineto
  626.1   647.9 lineto
  627.3   648.3 lineto
  628.4   648.6 lineto
  629.6   649.0 lineto
  630.7   649.3 lineto
  631.9   649.7 lineto
  633.0   650.1 lineto
  634.2   650.4 lineto
  635.3   650.8 lineto
  636.5   651.2 lineto
  637.6   651.5 lineto
  638.8   651.9 lineto
  639.9   652.3 lineto
  641.1   652.6 lineto
  642.2   653.0 lineto
  643.4   653.4 lineto
  644.5   653.7 lineto
  645.7   654.1 lineto
  646.8   654.4 lineto
  648.0   654.8 lineto
  649.1   655.2 lineto
  650.3   655.5 lineto
  651.4   655.9 lineto
  652.6   656.3 lineto
  653.7   656.6 lineto
  654.9   657.0 lineto
  656.0   657.4 lineto
  657.2   657.7 lineto
  658.3   658.1 lineto
  659.5   658.5 lineto
  660.6   658.8 lineto
  661.8   659.2 lineto
  662.9   659.5 lineto
  664.1   659.9 lineto
   10.0   750.0 moveto
(NIZM_BH_E.2019-08-24-0000_GSE) show
  100.0    70.0 moveto
  100.0   320.0 lineto
  690.0   320.0 lineto
  690.0    70.0 lineto
  100.0    70.0 lineto
  150.0    30.0 moveto
(      Log frequency  Hz       ) show
  190.1    50.0 moveto
(     -2) show
  215.1    70.0 moveto
  215.1    80.0 lineto
  305.2    50.0 moveto
(     -1) show
  330.2    70.0 moveto
  330.2    80.0 lineto
  420.4    50.0 moveto
(      0) show
  445.4    70.0 moveto
  445.4    80.0 lineto
  535.5    50.0 moveto
(      1) show
  560.5    70.0 moveto
  560.5    80.0 lineto
  650.6    50.0 moveto
(      2) show
  675.6    70.0 moveto
  675.6    80.0 lineto
   10.0   320.0 moveto
(P) show
   10.0   307.0 moveto
(h) show
   10.0   294.0 moveto
(a) show
   10.0   281.0 moveto
(s) show
   10.0   268.0 moveto
(e) show
   10.0   255.0 moveto
( ) show
   10.0   242.0 moveto
( ) show
   10.0   229.0 moveto
( ) show
   10.0   216.0 moveto
( ) show
   10.0   203.0 moveto
( ) show
   10.0   190.0 moveto
( ) show
   10.0   177.0 moveto
( ) show
   10.0   164.0 moveto
( ) show
   10.0   151.0 moveto
( ) show
   10.0   138.0 moveto
( ) show
   10.0   125.0 moveto
( ) show
   10.0   112.0 moveto
( ) show
   10.0    99.0 moveto
( ) show
   10.0    86.0 moveto
( ) show
   10.0    73.0 moveto
( ) show
   10.0    60.0 moveto
( ) show
   10.0    47.0 moveto
( ) show
   10.0    34.0 moveto
( ) show
   10.0    21.0 moveto
( ) show
   10.0     8.0 moveto
( ) show
   10.0    -5.0 moveto
( ) show
   10.0   -18.0 moveto
( ) show
   10.0   -31.0 moveto
( ) show
   10.0   -44.0 moveto
( ) show
   10.0   -57.0 moveto
( ) show
    5.0    96.6 moveto
(   -150) show
  100.0   101.6 moveto
  110.0   101.6 lineto
    5.0   128.1 moveto
(   -100) show
  100.0   133.1 moveto
  110.0   133.1 lineto
    5.0   159.7 moveto
(    -50) show
  100.0   164.7 moveto
  110.0   164.7 lineto
    5.0   191.2 moveto
(      0) show
  100.0   196.2 moveto
  110.0   196.2 lineto
    5.0   222.8 moveto
(     50) show
  100.0   227.8 moveto
  110.0   227.8 lineto
    5.0   254.3 moveto
(    100) show
  100.0   259.3 moveto
  110.0   259.3 lineto
    5.0   285.9 moveto
(    150) show
  100.0   290.9 moveto
  110.0   290.9 lineto
  100.0   343.0 moveto
(q to quit                                                                       ) show
  146.0   123.7 moveto
  147.2   123.3 lineto
  148.4   122.9 lineto
  149.5   122.5 lineto
  150.7   122.1 lineto
  151.8   121.7 lineto
  153.0   121.2 lineto
  154.1   120.8 lineto
  155.3   120.3 lineto
  156.4   119.8 lineto
  157.6   119.3 lineto
  158.7   118.8 lineto
  159.9   118.3 lineto
  161.0   117.8 lineto
  162.2   117.2 lineto
  163.3   116.7 lineto
  164.5   116.1 lineto
  165.6   115.5 lineto
  166.8   114.9 lineto
  167.9   114.2 lineto
  169.1   113.6 lineto
  170.2   112.9 lineto
  171.4   112.2 lineto
  172.5   111.5 lineto
  173.7   110.8 lineto
  174.8   110.1 lineto
  176.0   109.3 lineto
  177.1   108.5 lineto
  178.3   107.7 lineto
  179.4   106.9 lineto
  180.6   106.1 lineto
  181.7   105.2 lineto
  182.9   104.3 lineto
  184.0   103.4 lineto
  185.2   102.5 lineto
  186.3   101.5 lineto
  187.5   100.6 lineto
  188.6    99.6 lineto
  189.8    98.5 lineto
  190.9    97.5 lineto
  192.1    96.5 lineto
  193.2    95.4 lineto
  194.4    94.3 lineto
  195.6    93.2 lineto
  196.7    92.1 lineto
  197.9    90.9 lineto
  199.0    89.8 lineto
  200.2    88.6 lineto
  201.3    87.5 lineto
  202.5    86.3 lineto
  203.6    85.1 lineto
  204.8    83.9 lineto
  205.9    82.7 lineto
  207.1   308.7 lineto
  208.2   307.5 lineto
  209.4   306.3 lineto
  210.5   305.2 lineto
  211.7   304.0 lineto
  212.8   302.8 lineto
  214.0   301.7 lineto
  215.1   300.5 lineto
  216.3   299.4 lineto
  217.4   298.3 lineto
  218.6   297.2 lineto
  219.7   296.1 lineto
  220.9   295.1 lineto
  222.0   294.0 lineto
  223.2   293.0 lineto
  224.3   292.0 lineto
  225.5   291.0 lineto
  226.6   290.1 lineto
  227.8   289.2 lineto
  228.9   288.2 lineto
  230.1   287.4 lineto
  231.2   286.5 lineto
  232.4   285.6 lineto
  233.5   284.8 lineto
  234.7   284.0 lineto
  235.8   283.2 lineto
  237.0   282.5 lineto
  238.1   281.7 lineto
  239.3   281.0 lineto
  240.4   280.3 lineto
  241.6   279.6 lineto
  242.8   278.9 lineto
  243.9   278.3 lineto
  245.1   277.6 lineto
  246.2   277.0 lineto
  247.4   276.4 lineto
  248.5   275.8 lineto
  249.7   275.3 lineto
  250.8   274.7 lineto
  252.0   274.2 lineto
  253.1   273.7 lineto
  254.3   273.2 lineto
  255.4   272.7 lineto
  256.6   272.2 lineto
  257.7   271.7 lineto
  258.9   271.3 lineto
  260.0   270.8 lineto
  261.2   270.4 lineto
  262.3   270.0 lineto
  263.5   269.6 lineto
  264.6   269.2 lineto
  265.8   268.8 lineto
  266.9   268.4 lineto
  268.1   268.0 lineto
  269.2   267.7 lineto
  270.4   267.3 lineto
  271.5   267.0 lineto
  272.7   266.6 lineto
  273.8   266.3 lineto
  275.0   266.0 lineto
  276.1   265.7 lineto
  277.3   265.4 lineto
  278.4   265.1 lineto
  279.6   264.8 lineto
  280.7   264.5 lineto
  281.9   264.3 lineto
  283.0   264.0 lineto
  284.2   263.8 lineto
  285.3   263.5 lineto
  286.5   263.3 lineto
  287.6   263.0 lineto
  288.8   262.8 lineto
  290.0   262.6 lineto
  291.1   262.3 lineto
  292.3   262.1 lineto
  293.4   261.9 lineto
  294.6   261.7 lineto
  295.7   261.5 lineto
  296.9   261.3 lineto
  298.0   261.1 lineto
  299.2   260.9 lineto
  300.3   260.7 lineto
  301.5   260.6 lineto
  302.6   260.4 lineto
  303.8   260.2 lineto
  304.9   260.0 lineto
  306.1   259.9 lineto
  307.2   259.7 lineto
  308.4   259.6 lineto
  309.5   259.4 lineto
  310.7   259.3 lineto
  311.8   259.1 lineto
  313.0   259.0 lineto
  314.1   258.8 lineto
  315.3   258.7 lineto
  316.4   258.6 lineto
  317.6   258.5 lineto
  318.7   258.3 lineto
  319.9   258.2 lineto
  321.0   258.1 lineto
  322.2   258.0 lineto
  323.3   257.9 lineto
  324.5   257.7 lineto
  325.6   257.6 lineto
  326.8   257.5 lineto
  327.9   257.4 lineto
  329.1   257.3 lineto
  330.2   257.2 lineto
  331.4   257.1 lineto
  332.5   257.0 lineto
  333.7   256.9 lineto
  334.8   256.9 lineto
  336.0   256.8 lineto
  337.2   256.7 lineto
  338.3   256.6 lineto
  339.5   256.5 lineto
  340.6   256.4 lineto
  341.8   256.4 lineto
  342.9   256.3 lineto
  344.1   256.2 lineto
  345.2   256.1 lineto
  346.4   256.1 lineto
  347.5   256.0 lineto
  348.7   255.9 lineto
  349.8   255.9 lineto
  351.0   255.8 lineto
  352.1   255.7 lineto
  353.3   255.7 lineto
  354.4   255.6 lineto
  355.6   255.5 lineto
  356.7   255.5 lineto
  357.9   255.4 lineto
  359.0   255.4 lineto
  360.2   255.3 lineto
  361.3   255.3 lineto
  362.5   255.2 lineto
  363.6   255.2 lineto
  364.8   255.1 lineto
  365.9   255.1 lineto
  367.1   255.0 lineto
  368.2   255.0 lineto
  369.4   254.9 lineto
  370.5   254.9 lineto
  371.7   254.8 lineto
  372.8   254.8 lineto
  374.0   254.8 lineto
  375.1   254.7 lineto
  376.3   254.7 lineto
  377.4   254.6 lineto
  378.6   254.6 lineto
  379.7   254.6 lineto
  380.9   254.5 lineto
  382.0   254.5 lineto
  383.2   254.5 lineto
  384.4   254.4 lineto
  385.5   254.4 lineto
  386.7   254.4 lineto
  387.8   254.3 lineto
  389.0   254.3 lineto
  390.1   254.3 lineto
  391.3   254.2 lineto
  392.4   254.2 lineto
  393.6   254.2 lineto
  394.7   254.2 lineto
  395.9   254.1 lineto
  397.0   254.1 lineto
  398.2   254.1 lineto
  399.3   254.1 lineto
  400.5   254.0 lineto
  401.6   254.0 lineto
  402.8   254.0 lineto
  403.9   254.0 lineto
  405.1   253.9 lineto
  406.2   253.9 lineto
  407.4   253.9 lineto
  408.5   253.9 lineto
  409.7   253.9 lineto
  410.8   253.8 lineto
  412.0   253.8 lineto
  413.1   253.8 lineto
  414.3   253.8 lineto
  415.4   253.8 lineto
  416.6   253.7 lineto
  417.7   253.7 lineto
  418.9   253.7 lineto
  420.0   253.7 lineto
  421.2   253.7 lineto
  422.3   253.7 lineto
  423.5   253.7 lineto
  424.6   253.6 lineto
  425.8   253.6 lineto
  426.9   253.6 lineto
  428.1   253.6 lineto
  429.2   253.6 lineto
  430.4   253.6 lineto
  431.6   253.6 lineto
  432.7   253.5 lineto
  433.9   253.5 lineto
  435.0   253.5 lineto
  436.2   253.5 lineto
  437.3   253.5 lineto
  438.5   253.5 lineto
  439.6   253.5 lineto
  440.8   253.5 lineto
  441.9   253.5 lineto
  443.1   253.4 lineto
  444.2   253.4 lineto
  445.4   253.4 lineto
  446.5   253.4 lineto
  447.7   253.4 lineto
  448.8   253.4 lineto
  450.0   253.4 lineto
  451.1   253.4 lineto
  452.3   253.4 lineto
  453.4   253.4 lineto
  454.6   253.4 lineto
  455.7   253.3 lineto
  456.9   253.3 lineto
  458.0   253.3 lineto
  459.2   253.3 lineto
  460.3   253.3 lineto
  461.5   253.3 lineto
  462.6   253.3 lineto
  463.8   253.3 lineto
  464.9   253.3 lineto
  466.1   253.3 lineto
  467.2   253.3 lineto
  468.4   253.3 lineto
  469.5   253.3 lineto
  470.7   253.3 lineto
  471.8   253.2 lineto
  473.0   253.2 lineto
  474.1   253.2 lineto
  475.3   253.2 lineto
  476.4   253.2 lineto
  477.6   253.2 lineto
  478.8   253.2 lineto
  479.9   253.2 lineto
  481.1   253.2 lineto
  482.2   253.2 lineto
  483.4   253.2 lineto
  484.5   253.2 lineto
  485.7   253.2 lineto
  486.8   253.2 lineto
  488.0   253.2 lineto
  489.1   253.2 lineto
  490.3   253.2 lineto
  491.4   253.2 lineto
  492.6   253.2 lineto
  493.7   253.2 lineto
  494.9   253.2 lineto
  496.0   253.2 lineto
  497.2   253.1 lineto
  498.3   253.1 lineto
  499.5   253.1 lineto
  500.6   253.1 lineto
  501.8   253.1 lineto
  502.9   253.1 lineto
  504.1   253.1 lineto
  505.2   253.1 lineto
  506.4   253.1 lineto
  507.5   253.1 lineto
  508.7   253.1 lineto
  509.8   253.1 lineto
  511.0   253.1 lineto
  512.1   253.1 lineto
  513.3   253.1 lineto
  514.4   253.1 lineto
  515.6   253.1 lineto
  516.7   253.1 lineto
  517.9   253.1 lineto
  519.0   253.1 lineto
  520.2   253.1 lineto
  521.3   253.1 lineto
  522.5   253.1 lineto
  523.6   253.1 lineto
  524.8   253.1 lineto
  526.0   253.1 lineto
  527.1   253.1 lineto
  528.3   253.1 lineto
  529.4   253.1 lineto
  530.6   253.1 lineto
  531.7   253.1 lineto
  532.9   253.1 lineto
  534.0   253.1 lineto
  535.2   253.1 lineto
  536.3   253.1 lineto
  537.5   253.1 lineto
  538.6   253.1 lineto
  539.8   253.1 lineto
  540.9   253.1 lineto
  542.1   253.1 lineto
  543.2   253.1 lineto
  544.4   253.1 lineto
  545.5   253.1 lineto
  546.7   253.1 lineto
  547.8   253.1 lineto
  549.0   253.1 lineto
  550.1   253.1 lineto
  551.3   253.1 lineto
  552.4   253.0 lineto
  553.6   253.0 lineto
  554.7   253.0 lineto
  555.9   253.0 lineto
  557.0   253.0 lineto
  558.2   253.0 lineto
  559.3   253.0 lineto
  560.5   253.0 lineto
  561.6   253.0 lineto
  562.8   253.0 lineto
  563.9   253.0 lineto
  565.1   253.0 lineto
  566.2   253.0 lineto
  567.4   253.0 lineto
  568.5   253.0 lineto
  569.7   253.0 lineto
  570.8   253.0 lineto
  572.0   253.0 lineto
  573.2   253.0 lineto
  574.3   253.0 lineto
  575.5   253.0 lineto
  576.6   253.0 lineto
  577.8   253.0 lineto
  578.9   253.0 lineto
  580.1   253.0 lineto
  581.2   253.0 lineto
  582.4   253.0 lineto
  583.5   253.0 lineto
  584.7   253.0 lineto
  585.8   253.0 lineto
  587.0   253.0 lineto
  588.1   253.0 lineto
  589.3   253.0 lineto
  590.4   253.0 lineto
  591.6   253.0 lineto
  592.7   253.0 lineto
  593.9   253.0 lineto
  595.0   253.0 lineto
  596.2   253.0 lineto
  597.3   253.0 lineto
  598.5   253.0 lineto
  599.6   253.0 lineto
  600.8   253.0 lineto
  601.9   253.0 lineto
  603.1   253.0 lineto
  604.2   253.0 lineto
  605.4   253.0 lineto
  606.5   253.0 lineto
  607.7   253.0 lineto
  608.8   253.0 lineto
  610.0   253.0 lineto
  611.1   253.0 lineto
  612.3   253.0 lineto
  613.4   253.0 lineto
  614.6   253.0 lineto
  615.7   253.0 lineto
  616.9   253.0 lineto
  618.0   253.0 lineto
  619.2   253.0 lineto
  620.4   253.0 lineto
  621.5   253.0 lineto
  622.7   253.0 lineto
  623.8   253.0 lineto
  625.0   253.0 lineto
  626.1   253.0 lineto
  627.3   253.0 lineto
  628.4   253.0 lineto
  629.6   253.0 lineto
  630.7   253.0 lineto
  631.9   253.0 lineto
  633.0   253.0 lineto
  634.2   253.0 lineto
  635.3   253.0 lineto
  636.5   253.0 lineto
  637.6   253.0 lineto
  638.8   253.0 lineto
  639.9   253.0 lineto
  641.1   253.0 lineto
  642.2   253.0 lineto
  643.4   253.0 lineto
  644.5   253.0 lineto
  645.7   253.0 lineto
  646.8   253.0 lineto
  648.0   253.0 lineto
  649.1   253.0 lineto
  650.3   253.0 lineto
  651.4   253.0 lineto
  652.6   253.0 lineto
  653.7   253.0 lineto
  654.9   253.0 lineto
  656.0   253.0 lineto
  657.2   253.0 lineto
  658.3   253.0 lineto
  659.5   253.0 lineto
  660.6   253.0 lineto
  661.8   253.0 lineto
  662.9   253.0 lineto
  664.1   253.0 lineto
 0.1 setlinewidth
 stroke
 showpage

